dump_tb.vcd
$date
	Sun Dec  4 02:31:32 2022
$end
$version
	Icarus Verilog
$end
$timescale
	1s
$end
$scope module testbench $end
$scope module cpu1 $end
$var wire 15 ! A1 [14:0] $end
$var wire 4 " C1 [3:0] $end
$var wire 16 # D1 [15:0] $end
$var wire 1 $ M_dump $end
$var wire 1 % clk $end
$var reg 15 & a1 [14:0] $end
$var reg 4 ' c1out [3:0] $end
$var reg 16 ( d1out [15:0] $end
$var reg 1 ) m_dump $end
$var reg 5 * offset [4:0] $end
$var reg 32 + s [31:0] $end
$var reg 4 , set [3:0] $end
$var reg 11 - tag [10:0] $end
$var reg 1 . write1 $end
$var integer 32 / K [31:0] $end
$var integer 32 0 M [31:0] $end
$var integer 32 1 N [31:0] $end
$var integer 32 2 cnt [31:0] $end
$var integer 32 3 i [31:0] $end
$var integer 32 4 k [31:0] $end
$var integer 32 5 pa [31:0] $end
$var integer 32 6 pb [31:0] $end
$var integer 32 7 pc [31:0] $end
$var integer 32 8 t1 [31:0] $end
$var integer 32 9 t2 [31:0] $end
$var integer 32 : x [31:0] $end
$var integer 32 ; y [31:0] $end
$upscope $end
$upscope $end
$scope module testbench $end
$var wire 4 < c1 [3:0] $end
$var wire 4 = c2 [3:0] $end
$var wire 16 > d1 [15:0] $end
$var wire 16 ? d2 [15:0] $end
$var wire 1 $ m_dump $end
$var wire 15 @ a2 [14:0] $end
$var wire 15 A a1 [14:0] $end
$var reg 1 B c_dump $end
$var reg 1 % clk $end
$var reg 1 C reset $end
$upscope $end
$scope module testbench $end
$scope module chache1 $end
$var wire 15 D A2 [14:0] $end
$var wire 4 E C1 [3:0] $end
$var wire 4 F C2 [3:0] $end
$var wire 1 B C_DUMP $end
$var wire 16 G D1 [15:0] $end
$var wire 16 H D2 [15:0] $end
$var wire 1 C RESET $end
$var wire 1 % clk $end
$var wire 15 I A1 [14:0] $end
$var reg 15 J a2out [14:0] $end
$var reg 4 K c1out [3:0] $end
$var reg 4 L c2out [3:0] $end
$var reg 256 M cache_line [255:0] $end
$var reg 256 N cache_line2 [255:0] $end
$var reg 16 O d1out [15:0] $end
$var reg 16 P d2out [15:0] $end
$var reg 16 Q data [15:0] $end
$var reg 16 R data2 [15:0] $end
$var reg 5 S offset [4:0] $end
$var reg 4 T set [3:0] $end
$var reg 11 U tag [10:0] $end
$var reg 15 V tagNset [14:0] $end
$var reg 1 W write1 $end
$var reg 1 X write2 $end
$var integer 32 Y adr [31:0] $end
$var integer 32 Z cacheloosecnt [31:0] $end
$var integer 32 [ cellCashAdr [31:0] $end
$var integer 32 \ i [31:0] $end
$upscope $end
$upscope $end
$scope module testbench $end
$scope module mem $end
$var wire 15 ] A2 [14:0] $end
$var wire 4 ^ C2 [3:0] $end
$var wire 16 _ D2 [15:0] $end
$var wire 1 $ M_DUMP $end
$var wire 1 C RESET $end
$var wire 1 % clk $end
$var parameter 32 ` _SEED $end
$var reg 4 a c2out [3:0] $end
$var reg 16 b cache_line [15:0] $end
$var reg 16 c d2out [15:0] $end
$var reg 1 d write2 $end
$var integer 32 e SEED [31:0] $end
$var integer 32 f adr [31:0] $end
$var integer 32 g fd [31:0] $end
$var integer 32 h i [31:0] $end
$upscope $end
$upscope $end
$enddefinitions $end
$comment Show the parameter values. $end
$dumpall
b110111000011110110 `
$end
#0
$dumpvars
b1000000000000000 h
b10000000000000000000000000000011 g
b0 f
b11100111001100110111000011110110 e
0d
bx c
b0 b
bx a
b0 _
bx ^
bx ]
b100000 \
b0 [
b0 Z
b0 Y
1X
0W
bx V
bx U
bx T
bx S
bx R
bx Q
b0 P
bx O
bx N
bx M
bx L
bx K
bx J
bx I
b0 H
bx G
bx F
bx E
bx D
0C
0B
bx A
bx @
b0 ?
bx >
bx =
bx <
b0 ;
b0 :
b0 9
b0 8
b0 7
b0 6
b0 5
b0 4
b0 3
b0 2
b0 1
b0 0
b0 /
1.
bx -
bx ,
bx +
bx *
x)
bx (
bx '
bx &
0%
x$
bx #
bx "
bx !
$end
#1
b111 "
b111 <
b111 E
b1 #
b1 >
b1 G
b1 (
b111 '
b0 !
b0 A
b0 I
b0 &
b0 c
1%
#2
b0 V
b1 Q
0%
#3
b0 #
b0 >
b0 G
b0 (
1%
#4
b1 Z
b0 R
b0 T
b0 U
b0 S
0%
#5
b0 @
b0 D
b0 ]
b0 J
b10 =
b10 F
b10 ^
b0 "
b0 <
b0 E
bx #
bx >
bx G
0.
b10 L
b0 K
1W
1%
#6
b0 h
0%
#7
b0 =
b0 F
b0 ^
0X
b1 h
b0 a
1d
1%
#8
0%
#9
b10 h
1%
#10
0%
#11
b11 h
1%
#12
0%
#13
b100 h
1%
#14
0%
#15
b101 h
1%
#16
0%
#17
b110 h
1%
#18
0%
#19
b111 h
1%
#20
0%
#21
b1000 h
1%
#22
0%
#23
b1001 h
1%
#24
0%
#25
b0 h
1%
#26
0%
#27
b1 =
b1 F
b1 ^
b10111101110011 ?
b10111101110011 H
b10111101110011 _
b1 h
b1 a
b10111101110011 c
1%
#28
bx0010111101110011 M
b1 \
0%
#29
b1011110000111100 ?
b1011110000111100 H
b1011110000111100 _
b10 h
b1011110000111100 c
1%
#30
b10 \
bx10111100001111000010111101110011 M
0%
#31
b110011010100010 ?
b110011010100010 H
b110011010100010 _
b11 h
b110011010100010 c
1%
#32
b11 \
bx011001101010001010111100001111000010111101110011 M
0%
#33
b1011000000000111 ?
b1011000000000111 H
b1011000000000111 _
b100 h
b1011000000000111 c
1%
#34
b100 \
bx1011000000000111011001101010001010111100001111000010111101110011 M
0%
#35
b1111010010000011 ?
b1111010010000011 H
b1111010010000011 _
b101 h
b1111010010000011 c
1%
#36
b101 \
bx11110100100000111011000000000111011001101010001010111100001111000010111101110011 M
0%
#37
b10100011000010 ?
b10100011000010 H
b10100011000010 _
b110 h
b10100011000010 c
1%
#38
b110 \
bx001010001100001011110100100000111011000000000111011001101010001010111100001111000010111101110011 M
0%
#39
b1111111011011110 ?
b1111111011011110 H
b1111111011011110 _
b111 h
b1111111011011110 c
1%
#40
b111 \
bx1111111011011110001010001100001011110100100000111011000000000111011001101010001010111100001111000010111101110011 M
0%
#41
b1110011001110100 ?
b1110011001110100 H
b1110011001110100 _
b1000 h
b1110011001110100 c
1%
#42
b1000 \
bx11100110011101001111111011011110001010001100001011110100100000111011000000000111011001101010001010111100001111000010111101110011 M
0%
#43
b10000000100000 ?
b10000000100000 H
b10000000100000 _
b1001 h
b10000000100000 c
1%
#44
b1001 \
bx001000000010000011100110011101001111111011011110001010001100001011110100100000111011000000000111011001101010001010111100001111000010111101110011 M
0%
#45
b1101011100101111 ?
b1101011100101111 H
b1101011100101111 _
b1010 h
b1101011100101111 c
1%
#46
b1010 \
bx1101011100101111001000000010000011100110011101001111111011011110001010001100001011110100100000111011000000000111011001101010001010111100001111000010111101110011 M
0%
#47
b1000011000 ?
b1000011000 H
b1000011000 _
b1011 h
b1000011000 c
1%
#48
b1011 \
bx00000010000110001101011100101111001000000010000011100110011101001111111011011110001010001100001011110100100000111011000000000111011001101010001010111100001111000010111101110011 M
0%
#49
b111110100101100 ?
b111110100101100 H
b111110100101100 _
b1100 h
b111110100101100 c
1%
#50
b1100 \
bx011111010010110000000010000110001101011100101111001000000010000011100110011101001111111011011110001010001100001011110100100000111011000000000111011001101010001010111100001111000010111101110011 M
0%
#51
b1001101001110001 ?
b1001101001110001 H
b1001101001110001 _
b1101 h
b1001101001110001 c
1%
#52
b1101 \
bx1001101001110001011111010010110000000010000110001101011100101111001000000010000011100110011101001111111011011110001010001100001011110100100000111011000000000111011001101010001010111100001111000010111101110011 M
0%
#53
b1100110101001 ?
b1100110101001 H
b1100110101001 _
b1110 h
b1100110101001 c
1%
#54
b1110 \
bx00011001101010011001101001110001011111010010110000000010000110001101011100101111001000000010000011100110011101001111111011011110001010001100001011110100100000111011000000000111011001101010001010111100001111000010111101110011 M
0%
#55
b100000011110010 ?
b100000011110010 H
b100000011110010 _
b1111 h
b100000011110010 c
1%
#56
b1111 \
bx010000001111001000011001101010011001101001110001011111010010110000000010000110001101011100101111001000000010000011100110011101001111111011011110001010001100001011110100100000111011000000000111011001101010001010111100001111000010111101110011 M
0%
#57
b1001100110000011 ?
b1001100110000011 H
b1001100110000011 _
b10000 h
b1001100110000011 c
1%
#58
b10000 \
b1001100110000011010000001111001000011001101010011001101001110001011111010010110000000010000110001101011100101111001000000010000011100110011101001111111011011110001010001100001011110100100000111011000000000111011001101010001010111100001111000010111101110011 M
0%
#59
b111 "
b111 <
b111 E
b0 =
b0 F
b0 ^
b0 ?
b0 H
b0 _
b0 c
0d
b0 L
b111 K
1X
1%
#60
1.
0%
#61
b10 #
b10 >
b10 G
0W
b10 (
b10000 !
b10000 A
b10000 I
b10000 &
1%
#62
b10000 V
b10 Q
0%
#63
b0 #
b0 >
b0 G
b0 (
b1000000000 !
b1000000000 A
b1000000000 I
b1000000000 &
1%
#64
b1000000000 Y
b10 Z
b1 U
0%
#65
b10000 @
b10000 D
b10000 ]
b10000 J
b10 =
b10 F
b10 ^
b0 "
b0 <
b0 E
bx #
bx >
bx G
0.
b10 L
b0 K
1W
1%
#66
b0 h
b1000000000 f
0%
#67
b0 =
b0 F
b0 ^
0X
b1 h
b0 a
1d
1%
#68
0%
#69
b10 h
1%
#70
0%
#71
b11 h
1%
#72
0%
#73
b100 h
1%
#74
0%
#75
b101 h
1%
#76
0%
#77
b110 h
1%
#78
0%
#79
b111 h
1%
#80
0%
#81
b1000 h
1%
#82
0%
#83
b1001 h
1%
#84
0%
#85
b0 h
1%
#86
0%
#87
b1 =
b1 F
b1 ^
b1000110011011110 ?
b1000110011011110 H
b1000110011011110 _
b1 h
b1 a
b1000110011011110 c
1%
#88
b1001100110000011010000001111001000011001101010011001101001110001011111010010110000000010000110001101011100101111001000000010000011100110011101001111111011011110001010001100001011110100100000111011000000000111011001101010001010111100001111001000110011011110 M
b1 \
0%
#89
b11111001110001 ?
b11111001110001 H
b11111001110001 _
b10 h
b11111001110001 c
1%
#90
b10 \
b1001100110000011010000001111001000011001101010011001101001110001011111010010110000000010000110001101011100101111001000000010000011100110011101001111111011011110001010001100001011110100100000111011000000000111011001101010001000111110011100011000110011011110 M
0%
#91
b1000011110000010 ?
b1000011110000010 H
b1000011110000010 _
b11 h
b1000011110000010 c
1%
#92
b11 \
b1001100110000011010000001111001000011001101010011001101001110001011111010010110000000010000110001101011100101111001000000010000011100110011101001111111011011110001010001100001011110100100000111011000000000111100001111000001000111110011100011000110011011110 M
0%
#93
b1110011001011101 ?
b1110011001011101 H
b1110011001011101 _
b100 h
b1110011001011101 c
1%
#94
b100 \
b1001100110000011010000001111001000011001101010011001101001110001011111010010110000000010000110001101011100101111001000000010000011100110011101001111111011011110001010001100001011110100100000111110011001011101100001111000001000111110011100011000110011011110 M
0%
#95
b1000011100111 ?
b1000011100111 H
b1000011100111 _
b101 h
b1000011100111 c
1%
#96
b101 \
b1001100110000011010000001111001000011001101010011001101001110001011111010010110000000010000110001101011100101111001000000010000011100110011101001111111011011110001010001100001000010000111001111110011001011101100001111000001000111110011100011000110011011110 M
0%
#97
b1011011101110111 ?
b1011011101110111 H
b1011011101110111 _
b110 h
b1011011101110111 c
1%
#98
b110 \
b1001100110000011010000001111001000011001101010011001101001110001011111010010110000000010000110001101011100101111001000000010000011100110011101001111111011011110101101110111011100010000111001111110011001011101100001111000001000111110011100011000110011011110 M
0%
#99
b1010101010110100 ?
b1010101010110100 H
b1010101010110100 _
b111 h
b1010101010110100 c
1%
#100
b111 \
b1001100110000011010000001111001000011001101010011001101001110001011111010010110000000010000110001101011100101111001000000010000011100110011101001010101010110100101101110111011100010000111001111110011001011101100001111000001000111110011100011000110011011110 M
0%
#101
b1101010010100110 ?
b1101010010100110 H
b1101010010100110 _
b1000 h
b1101010010100110 c
1%
#102
b1000 \
b1001100110000011010000001111001000011001101010011001101001110001011111010010110000000010000110001101011100101111001000000010000011010100101001101010101010110100101101110111011100010000111001111110011001011101100001111000001000111110011100011000110011011110 M
0%
#103
b101001100110110 ?
b101001100110110 H
b101001100110110 _
b1001 h
b101001100110110 c
1%
#104
b1001 \
b1001100110000011010000001111001000011001101010011001101001110001011111010010110000000010000110001101011100101111010100110011011011010100101001101010101010110100101101110111011100010000111001111110011001011101100001111000001000111110011100011000110011011110 M
0%
#105
b1000101111011011 ?
b1000101111011011 H
b1000101111011011 _
b1010 h
b1000101111011011 c
1%
#106
b1010 \
b1001100110000011010000001111001000011001101010011001101001110001011111010010110000000010000110001000101111011011010100110011011011010100101001101010101010110100101101110111011100010000111001111110011001011101100001111000001000111110011100011000110011011110 M
0%
#107
b1000100011100 ?
b1000100011100 H
b1000100011100 _
b1011 h
b1000100011100 c
1%
#108
b1011 \
b1001100110000011010000001111001000011001101010011001101001110001011111010010110000010001000111001000101111011011010100110011011011010100101001101010101010110100101101110111011100010000111001111110011001011101100001111000001000111110011100011000110011011110 M
0%
#109
b1011110000110001 ?
b1011110000110001 H
b1011110000110001 _
b1100 h
b1011110000110001 c
1%
#110
b1100 \
b1001100110000011010000001111001000011001101010011001101001110001101111000011000100010001000111001000101111011011010100110011011011010100101001101010101010110100101101110111011100010000111001111110011001011101100001111000001000111110011100011000110011011110 M
0%
#111
b11101111110001 ?
b11101111110001 H
b11101111110001 _
b1101 h
b11101111110001 c
1%
#112
b1101 \
b1001100110000011010000001111001000011001101010010011101111110001101111000011000100010001000111001000101111011011010100110011011011010100101001101010101010110100101101110111011100010000111001111110011001011101100001111000001000111110011100011000110011011110 M
0%
#113
b100111000101 ?
b100111000101 H
b100111000101 _
b1110 h
b100111000101 c
1%
#114
b1110 \
b1001100110000011010000001111001000001001110001010011101111110001101111000011000100010001000111001000101111011011010100110011011011010100101001101010101010110100101101110111011100010000111001111110011001011101100001111000001000111110011100011000110011011110 M
0%
#115
b1000101001011011 ?
b1000101001011011 H
b1000101001011011 _
b1111 h
b1000101001011011 c
1%
#116
b1111 \
b1001100110000011100010100101101100001001110001010011101111110001101111000011000100010001000111001000101111011011010100110011011011010100101001101010101010110100101101110111011100010000111001111110011001011101100001111000001000111110011100011000110011011110 M
0%
#117
b1100000101010101 ?
b1100000101010101 H
b1100000101010101 _
b10000 h
b1100000101010101 c
1%
#118
b1 [
b10000 \
b1100000101010101100010100101101100001001110001010011101111110001101111000011000100010001000111001000101111011011010100110011011011010100101001101010101010110100101101110111011100010000111001111110011001011101100001111000001000111110011100011000110011011110 M
0%
#119
b111 "
b111 <
b111 E
b0 =
b0 F
b0 ^
b0 ?
b0 H
b0 _
b0 c
0d
b0 L
b111 K
1X
1%
#120
1.
0%
#121
b11 #
b11 >
b11 G
0W
b11 (
b100000 !
b100000 A
b100000 I
b100000 &
1%
#122
b100000 V
b11 Q
0%
#123
b0 #
b0 >
b0 G
b0 (
b10000000000 !
b10000000000 A
b10000000000 I
b10000000000 &
1%
#124
b10000000000 Y
b11 Z
b10 U
0%
#125
b100000 @
b100000 D
b100000 ]
b100000 J
b10 =
b10 F
b10 ^
b0 "
b0 <
b0 E
bx #
bx >
bx G
0.
b10 L
b0 K
1W
1%
#126
b0 h
b10000000000 f
0%
#127
b0 =
b0 F
b0 ^
0X
b1 h
b0 a
1d
1%
#128
0%
#129
b10 h
1%
#130
0%
#131
b11 h
1%
#132
0%
#133
b100 h
1%
#134
0%
#135
b101 h
1%
#136
0%
#137
b110 h
1%
#138
0%
#139
b111 h
1%
#140
0%
#141
b1000 h
1%
#142
0%
#143
b1001 h
1%
#144
0%
#145
b0 h
1%
#146
0%
#147
b1 =
b1 F
b1 ^
b1001100110111000 ?
b1001100110111000 H
b1001100110111000 _
b1 h
b1 a
b1001100110111000 c
1%
#148
b1100000101010101100010100101101100001001110001010011101111110001101111000011000100010001000111001000101111011011010100110011011011010100101001101010101010110100101101110111011100010000111001111110011001011101100001111000001000111110011100011001100110111000 M
b1 \
0%
#149
b1111000010010111 ?
b1111000010010111 H
b1111000010010111 _
b10 h
b1111000010010111 c
1%
#150
b10 \
b1100000101010101100010100101101100001001110001010011101111110001101111000011000100010001000111001000101111011011010100110011011011010100101001101010101010110100101101110111011100010000111001111110011001011101100001111000001011110000100101111001100110111000 M
0%
#151
b101100111010010 ?
b101100111010010 H
b101100111010010 _
b11 h
b101100111010010 c
1%
#152
b11 \
b1100000101010101100010100101101100001001110001010011101111110001101111000011000100010001000111001000101111011011010100110011011011010100101001101010101010110100101101110111011100010000111001111110011001011101010110011101001011110000100101111001100110111000 M
0%
#153
b100101110100100 ?
b100101110100100 H
b100101110100100 _
b100 h
b100101110100100 c
1%
#154
b100 \
b1100000101010101100010100101101100001001110001010011101111110001101111000011000100010001000111001000101111011011010100110011011011010100101001101010101010110100101101110111011100010000111001110100101110100100010110011101001011110000100101111001100110111000 M
0%
#155
b1101110010111011 ?
b1101110010111011 H
b1101110010111011 _
b101 h
b1101110010111011 c
1%
#156
b101 \
b1100000101010101100010100101101100001001110001010011101111110001101111000011000100010001000111001000101111011011010100110011011011010100101001101010101010110100101101110111011111011100101110110100101110100100010110011101001011110000100101111001100110111000 M
0%
#157
b111011000011101 ?
b111011000011101 H
b111011000011101 _
b110 h
b111011000011101 c
1%
#158
b110 \
b1100000101010101100010100101101100001001110001010011101111110001101111000011000100010001000111001000101111011011010100110011011011010100101001101010101010110100011101100001110111011100101110110100101110100100010110011101001011110000100101111001100110111000 M
0%
#159
b10111111010 ?
b10111111010 H
b10111111010 _
b111 h
b10111111010 c
1%
#160
b111 \
b1100000101010101100010100101101100001001110001010011101111110001101111000011000100010001000111001000101111011011010100110011011011010100101001100000010111111010011101100001110111011100101110110100101110100100010110011101001011110000100101111001100110111000 M
0%
#161
b1111001111001000 ?
b1111001111001000 H
b1111001111001000 _
b1000 h
b1111001111001000 c
1%
#162
b1000 \
b1100000101010101100010100101101100001001110001010011101111110001101111000011000100010001000111001000101111011011010100110011011011110011110010000000010111111010011101100001110111011100101110110100101110100100010110011101001011110000100101111001100110111000 M
0%
#163
b11010110111100 ?
b11010110111100 H
b11010110111100 _
b1001 h
b11010110111100 c
1%
#164
b1001 \
b1100000101010101100010100101101100001001110001010011101111110001101111000011000100010001000111001000101111011011001101011011110011110011110010000000010111111010011101100001110111011100101110110100101110100100010110011101001011110000100101111001100110111000 M
0%
#165
b110111101111000 ?
b110111101111000 H
b110111101111000 _
b1010 h
b110111101111000 c
1%
#166
b1010 \
b1100000101010101100010100101101100001001110001010011101111110001101111000011000100010001000111000110111101111000001101011011110011110011110010000000010111111010011101100001110111011100101110110100101110100100010110011101001011110000100101111001100110111000 M
0%
#167
b1100111110001111 ?
b1100111110001111 H
b1100111110001111 _
b1011 h
b1100111110001111 c
1%
#168
b1011 \
b1100000101010101100010100101101100001001110001010011101111110001101111000011000111001111100011110110111101111000001101011011110011110011110010000000010111111010011101100001110111011100101110110100101110100100010110011101001011110000100101111001100110111000 M
0%
#169
b10101100100111 ?
b10101100100111 H
b10101100100111 _
b1100 h
b10101100100111 c
1%
#170
b1100 \
b1100000101010101100010100101101100001001110001010011101111110001001010110010011111001111100011110110111101111000001101011011110011110011110010000000010111111010011101100001110111011100101110110100101110100100010110011101001011110000100101111001100110111000 M
0%
#171
b1000110011100000 ?
b1000110011100000 H
b1000110011100000 _
b1101 h
b1000110011100000 c
1%
#172
b1101 \
b1100000101010101100010100101101100001001110001011000110011100000001010110010011111001111100011110110111101111000001101011011110011110011110010000000010111111010011101100001110111011100101110110100101110100100010110011101001011110000100101111001100110111000 M
0%
#173
b10101011010010 ?
b10101011010010 H
b10101011010010 _
b1110 h
b10101011010010 c
1%
#174
b1110 \
b1100000101010101100010100101101100101010110100101000110011100000001010110010011111001111100011110110111101111000001101011011110011110011110010000000010111111010011101100001110111011100101110110100101110100100010110011101001011110000100101111001100110111000 M
0%
#175
b1000001100110101 ?
b1000001100110101 H
b1000001100110101 _
b1111 h
b1000001100110101 c
1%
#176
b1111 \
b1100000101010101100000110011010100101010110100101000110011100000001010110010011111001111100011110110111101111000001101011011110011110011110010000000010111111010011101100001110111011100101110110100101110100100010110011101001011110000100101111001100110111000 M
0%
#177
b1100100010110 ?
b1100100010110 H
b1100100010110 _
b10000 h
b1100100010110 c
1%
#178
b0 [
b10000 \
b1100100010110100000110011010100101010110100101000110011100000001010110010011111001111100011110110111101111000001101011011110011110011110010000000010111111010011101100001110111011100101110110100101110100100010110011101001011110000100101111001100110111000 M
0%
#179
b11 =
b11 F
b11 ^
b0 ?
b0 H
b0 _
b0 c
0d
b1001100110000011010000001111001000011001101010011001101001110001011111010010110000000010000110001101011100101111001000000010000011100110011101001111111011011110001010001100001011110100100000111011000000000111011001101010001000000000000000000000000000000001 N
b0 @
b0 D
b0 ]
b0 J
b11 L
1X
1%
#180
b0 f
0%
#181
b1111 \
1%
#182
b1111 h
0%
#183
b1001100110000011 ?
b1001100110000011 H
b1001100110000011 _
b1110 \
b1001100110000011 P
1%
#184
b1110 h
0%
#185
b100000011110010 ?
b100000011110010 H
b100000011110010 _
b1101 \
b100000011110010 P
1%
#186
b1101 h
0%
#187
b1100110101001 ?
b1100110101001 H
b1100110101001 _
b1100 \
b1100110101001 P
1%
#188
b1100 h
0%
#189
b1001101001110001 ?
b1001101001110001 H
b1001101001110001 _
b1011 \
b1001101001110001 P
1%
#190
b1011 h
0%
#191
b111110100101100 ?
b111110100101100 H
b111110100101100 _
b1010 \
b111110100101100 P
1%
#192
b1010 h
0%
#193
b1000011000 ?
b1000011000 H
b1000011000 _
b1001 \
b1000011000 P
1%
#194
b1001 h
0%
#195
b1101011100101111 ?
b1101011100101111 H
b1101011100101111 _
b1000 \
b1101011100101111 P
1%
#196
b1000 h
0%
#197
b10000000100000 ?
b10000000100000 H
b10000000100000 _
b111 \
b10000000100000 P
1%
#198
b111 h
0%
#199
b1110011001110100 ?
b1110011001110100 H
b1110011001110100 _
b110 \
b1110011001110100 P
1%
#200
b110 h
0%
#201
b1111111011011110 ?
b1111111011011110 H
b1111111011011110 _
b101 \
b1111111011011110 P
1%
#202
b101 h
0%
#203
b10100011000010 ?
b10100011000010 H
b10100011000010 _
b100 \
b10100011000010 P
1%
#204
b100 h
0%
#205
b1111010010000011 ?
b1111010010000011 H
b1111010010000011 _
b11 \
b1111010010000011 P
1%
#206
b11 h
0%
#207
b1011000000000111 ?
b1011000000000111 H
b1011000000000111 _
b10 \
b1011000000000111 P
1%
#208
b10 h
0%
#209
b110011010100010 ?
b110011010100010 H
b110011010100010 _
b1 \
b110011010100010 P
1%
#210
b1 h
0%
#211
b0 ?
b0 H
b0 _
b0 \
b0 P
1%
#212
b0 h
0%
#213
b1 ?
b1 H
b1 _
b11111111111111111111111111111111 \
b1 P
1%
#214
b0 h
0%
#215
b0 =
b0 F
b0 ^
b0 ?
b0 H
b0 _
0X
b1 h
b0 a
1d
1%
#216
0%
#217
b10 h
1%
#218
0%
#219
b11 h
1%
#220
0%
#221
b100 h
1%
#222
0%
#223
b101 h
1%
#224
0%
#225
b110 h
1%
#226
0%
#227
b111 h
1%
#228
0%
#229
b1000 h
1%
#230
0%
#231
b1001 h
1%
#232
0%
#233
b1010 h
1%
#234
0%
#235
b1 =
b1 F
b1 ^
b1 a
1%
#236
b100 Z
0%
#237
b111 "
b111 <
b111 E
b0 =
b0 F
b0 ^
b0 P
0d
b0 L
b111 K
1X
1%
#238
1.
0%
#239
b11 "
b11 <
b11 E
b0 #
b0 >
b0 G
0W
b11 '
b0 !
b0 A
b0 I
b0 &
1%
#240
b0 V
0%
#241
1%
#242
b0 Y
b101 Z
b0 U
0%
#243
b10 =
b10 F
b10 ^
b0 "
b0 <
b0 E
bx #
bx >
bx G
0.
b10 L
b0 K
1W
1%
#244
b0 h
0%
#245
b0 =
b0 F
b0 ^
0X
b1 h
b0 a
1d
1%
#246
0%
#247
b10 h
1%
#248
0%
#249
b11 h
1%
#250
0%
#251
b100 h
1%
#252
0%
#253
b101 h
1%
#254
0%
#255
b110 h
1%
#256
0%
#257
b111 h
1%
#258
0%
#259
b1000 h
1%
#260
0%
#261
b1001 h
1%
#262
0%
#263
b0 h
1%
#264
0%
#265
b1 =
b1 F
b1 ^
b1 ?
b1 H
b1 _
b1 h
b1 a
b1 c
1%
#266
b1100100010110100000110011010100101010110100101000110011100000001010110010011111001111100011110110111101111000001101011011110011110011110010000000010111111010011101100001110111011100101110110100101110100100010110011101001011110000100101110000000000000001 M
b1 \
0%
#267
b0 ?
b0 H
b0 _
b10 h
b0 c
1%
#268
b10 \
b1100100010110100000110011010100101010110100101000110011100000001010110010011111001111100011110110111101111000001101011011110011110011110010000000010111111010011101100001110111011100101110110100101110100100010110011101001000000000000000000000000000000001 M
0%
#269
b110011010100010 ?
b110011010100010 H
b110011010100010 _
b11 h
b110011010100010 c
1%
#270
b11 \
b1100100010110100000110011010100101010110100101000110011100000001010110010011111001111100011110110111101111000001101011011110011110011110010000000010111111010011101100001110111011100101110110100101110100100011001101010001000000000000000000000000000000001 M
0%
#271
b1011000000000111 ?
b1011000000000111 H
b1011000000000111 _
b100 h
b1011000000000111 c
1%
#272
b100 \
b1100100010110100000110011010100101010110100101000110011100000001010110010011111001111100011110110111101111000001101011011110011110011110010000000010111111010011101100001110111011100101110111011000000000111011001101010001000000000000000000000000000000001 M
0%
#273
b1111010010000011 ?
b1111010010000011 H
b1111010010000011 _
b101 h
b1111010010000011 c
1%
#274
b101 \
b1100100010110100000110011010100101010110100101000110011100000001010110010011111001111100011110110111101111000001101011011110011110011110010000000010111111010011101100001110111110100100000111011000000000111011001101010001000000000000000000000000000000001 M
0%
#275
b10100011000010 ?
b10100011000010 H
b10100011000010 _
b110 h
b10100011000010 c
1%
#276
b110 \
b1100100010110100000110011010100101010110100101000110011100000001010110010011111001111100011110110111101111000001101011011110011110011110010000000010111111010001010001100001011110100100000111011000000000111011001101010001000000000000000000000000000000001 M
0%
#277
b1111111011011110 ?
b1111111011011110 H
b1111111011011110 _
b111 h
b1111111011011110 c
1%
#278
b111 \
b1100100010110100000110011010100101010110100101000110011100000001010110010011111001111100011110110111101111000001101011011110011110011110010001111111011011110001010001100001011110100100000111011000000000111011001101010001000000000000000000000000000000001 M
0%
#279
b1110011001110100 ?
b1110011001110100 H
b1110011001110100 _
b1000 h
b1110011001110100 c
1%
#280
b1000 \
b1100100010110100000110011010100101010110100101000110011100000001010110010011111001111100011110110111101111000001101011011110011100110011101001111111011011110001010001100001011110100100000111011000000000111011001101010001000000000000000000000000000000001 M
0%
#281
b10000000100000 ?
b10000000100000 H
b10000000100000 _
b1001 h
b10000000100000 c
1%
#282
b1001 \
b1100100010110100000110011010100101010110100101000110011100000001010110010011111001111100011110110111101111000001000000010000011100110011101001111111011011110001010001100001011110100100000111011000000000111011001101010001000000000000000000000000000000001 M
0%
#283
b1101011100101111 ?
b1101011100101111 H
b1101011100101111 _
b1010 h
b1101011100101111 c
1%
#284
b1010 \
b1100100010110100000110011010100101010110100101000110011100000001010110010011111001111100011111101011100101111001000000010000011100110011101001111111011011110001010001100001011110100100000111011000000000111011001101010001000000000000000000000000000000001 M
0%
#285
b1000011000 ?
b1000011000 H
b1000011000 _
b1011 h
b1000011000 c
1%
#286
b1011 \
b1100100010110100000110011010100101010110100101000110011100000001010110010011100000010000110001101011100101111001000000010000011100110011101001111111011011110001010001100001011110100100000111011000000000111011001101010001000000000000000000000000000000001 M
0%
#287
b111110100101100 ?
b111110100101100 H
b111110100101100 _
b1100 h
b111110100101100 c
1%
#288
b1100 \
b1100100010110100000110011010100101010110100101000110011100000011111010010110000000010000110001101011100101111001000000010000011100110011101001111111011011110001010001100001011110100100000111011000000000111011001101010001000000000000000000000000000000001 M
0%
#289
b1001101001110001 ?
b1001101001110001 H
b1001101001110001 _
b1101 h
b1001101001110001 c
1%
#290
b1101 \
b1100100010110100000110011010100101010110100101001101001110001011111010010110000000010000110001101011100101111001000000010000011100110011101001111111011011110001010001100001011110100100000111011000000000111011001101010001000000000000000000000000000000001 M
0%
#291
b1100110101001 ?
b1100110101001 H
b1100110101001 _
b1110 h
b1100110101001 c
1%
#292
b1110 \
b1100100010110100000110011010100011001101010011001101001110001011111010010110000000010000110001101011100101111001000000010000011100110011101001111111011011110001010001100001011110100100000111011000000000111011001101010001000000000000000000000000000000001 M
0%
#293
b100000011110010 ?
b100000011110010 H
b100000011110010 _
b1111 h
b100000011110010 c
1%
#294
b1111 \
b1100100010110010000001111001000011001101010011001101001110001011111010010110000000010000110001101011100101111001000000010000011100110011101001111111011011110001010001100001011110100100000111011000000000111011001101010001000000000000000000000000000000001 M
0%
#295
b1001100110000011 ?
b1001100110000011 H
b1001100110000011 _
b10000 h
b1001100110000011 c
1%
#296
b1 [
b10000 \
b1001100110000011010000001111001000011001101010011001101001110001011111010010110000000010000110001101011100101111001000000010000011100110011101001111111011011110001010001100001011110100100000111011000000000111011001101010001000000000000000000000000000000001 M
0%
#297
b11 =
b11 F
b11 ^
b0 ?
b0 H
b0 _
b0 c
0d
b1100000101010101100010100101101100001001110001010011101111110001101111000011000100010001000111001000101111011011010100110011011011010100101001101010101010110100101101110111011100010000111001111110011001011101100001111000001000000000000000000000000000000010 N
b10000 @
b10000 D
b10000 ]
b10000 J
b11 L
1X
1%
#298
b1000000000 f
0%
#299
b1111 \
1%
#300
b1111 h
0%
#301
b1100000101010101 ?
b1100000101010101 H
b1100000101010101 _
b1110 \
b1100000101010101 P
1%
#302
b1110 h
0%
#303
b1000101001011011 ?
b1000101001011011 H
b1000101001011011 _
b1101 \
b1000101001011011 P
1%
#304
b1101 h
0%
#305
b100111000101 ?
b100111000101 H
b100111000101 _
b1100 \
b100111000101 P
1%
#306
b1100 h
0%
#307
b11101111110001 ?
b11101111110001 H
b11101111110001 _
b1011 \
b11101111110001 P
1%
